{
  "client": "ESF",
  "date": "17/08/2020",
  "localisation": "Grenoble",
  "logo": "*url du logo*",
  "operateurs": {
    "total": 2504,
    "Orange": 933,
    "Free": 189,
    "SFR": 762,
    "Bouygue": 652
  },
  "envoi": {
    "recu": 2217,
    "erreur": 287,
    "stop": 14
  },
  "erreurs": {
    "envoye": 31,
    "gsm": 60,
    "invalide": 94,
    "expire": 92,
    "autre": 10
  },
  "clics": {
    "cliques": 443,
    "sms": 2504,
    "personne ayant clique": 388
  }
}
